{
   "padrao":[
      {
         "buscar":"<(/?)sup>|<(/?)u>|<(/?)b>|<(/?)strong>|<(/?)i>|<(/?)em>|<(/?)sub>",
         "substituirPor":"", 
          "repetir" : 0
},
{
         "buscar":"Presidência da República",
         "substituirPor":"", 
          "repetir" : 1
      
},
{
         "buscar":"(Secretaria-Geral|Casa Civil)",
         "substituirPor":"", 
          "repetir" : 1
      
},
{
         "buscar":"Subchefia para Assuntos Jurídicos",
         "substituirPor":"", 
          "repetir" : 1
        
},
{
         "buscar":"\\n",
         "substituirPor":" ", 
          "repetir" : 0
      
},
      {
         "buscar":"\\t|\\s{2,}",
         "substituirPor":" ", 
          "repetir" : 0
      
},
{
         "buscar":"<table.*?>",
         "substituirPor":"@ementa@",
          "repetir" : 1
      
},  
{
         "buscar":"</table>",
         "substituirPor":"@/ementa@",
          "repetir" : 1
      
},
      {
         "buscar":"<(.*?)>",
         "substituirPor":"\\n<\\1>\\n", 
          "repetir" : 0
      
},
      {
         "buscar":"<span.*?text-decoration:\\s*?line-through\".*?>\\n(.*?)\\n</span>",
         "substituirPor":"@revogado@\\1@/revogado@", 
          "repetir" : 0
      
},
      {
         "buscar":"<(/?)strike>",
         "substituirPor":"@\\1revogado@", 
          "repetir" : 0
      
},
      {
         "buscar":"<(/?)del>",
         "substituirPor":"@\\1revogado@", 
          "repetir" : 0
      
},
      {
         "buscar":"\\n",
         "substituirPor":" ", 
          "repetir" : 0
      
},
      {
         "buscar":"<a href=(.*?)>(.*?)</a>",
         "substituirPor":"@link url='\\1'@\\2@/link@", 
          "repetir" : 0
      
},
      {
         "buscar":"<.*?>",
         "substituirPor":"\\n", 
          "repetir" : 0
      
},
      {
         "buscar":"@(.*?)@",
         "substituirPor":"\\n@\\1@\\n", 
          "repetir" : 0
      
},
      {
         "buscar":"(^\\s+|&nbsp;)",
         "substituirPor":"", 
          "repetir" : 0
      
},
      {
         "buscar":"^(Art.*)",
         "substituirPor":"<artigo>\\1</artigo>", 
          "repetir" : 0
      
},
      {
         "buscar":"^(Subseção.*\\n[^@|^<]*)",
         "substituirPor":"\\n<subsecao>\\1</subsecao>\\n", 
          "repetir" : 0
      
},
      {
         "buscar":"^(Seção.*\\n[^@|^<]*)",
         "substituirPor":"\\n<secao>\\1</secao>\\n", 
          "repetir" : 0
      
},
      {
         "buscar":"^(CAPÍTULO.*\\n[^@|^<]*)",
         "substituirPor":"\\n<capitulo>\\1</capitulo>\\n", 
          "repetir" : 0
      
},
      {
         "buscar":"^(TÍTULO.*\\n[^@|^<]*)",
         "substituirPor":"\\n<titulo>\\1</titulo>\\n", 
          "repetir" : 0
},
      {
         "buscar":"^([I|V|X|L|C](.?){1,9} -.*)",
         "substituirPor":"<inciso>\\1</inciso>", 
          "repetir" : 0
},
      {
         "buscar":"^(((§)|(Parágrafo\\s+único)).*)",
         "substituirPor":"<paragrafo>\\1</paragrafo>", 
          "repetir" : 0
      
},
      {
         "buscar":"^([a-z]{1,2}\\).*)",
         "substituirPor":"<alinea>\\1</alinea>", 
          "repetir" : 0
      
},
      {
         "buscar":"@(/?)revogado@",
         "substituirPor":"<\\1revogado>", 
          "repetir" : 0
      
},
     {
         "buscar":"@(/?)ementa@",
         "substituirPor":"<\\1ementa>", 
          "repetir" : 0
}, 
      {
         "buscar":"@(/)?link(.*?)@",
         "substituirPor":"<\\1lawLink\\2>", 
          "repetir" : 0
},
      {
         "buscar":"\\n",
         "substituirPor":"", 
          "repetir" : 0
},
      {
         "buscar":"<revogado></revogado>",
         "substituirPor":"", 
          "repetir" : 0
},
      {
         "buscar":"(</.*?>)",
         "substituirPor":"\\1\\n", 
          "repetir" : 0
},
{
         "buscar":"(^[A-Z]{3,}[ºA-ZÁÉÓÚÃẼÕÂÊÔÇÀ0-9\\s ]{7,})",
         "substituirPor":"<epigrafe>\\1</epigrafe>", 
          "repetir" : 1
        
},
      {
         "buscar":"^([a-zA-záéíóúàãâõâêô].*?)<",
         "substituirPor":"<denominacao>\\1</denominacao><", 
          "repetir" : 0
},
      {
         "buscar":"(\"')|('\")",
         "substituirPor":"\"", 
          "repetir" : 0
},
      {
         "buscar":"(<livro|<titulo|<capitulo|<secao|<artigo)",
         "substituirPor":"</preambulo>\\1", 
          "repetir" : 1
}, 
      {
         "buscar":"(<.*?>)",
         "substituirPor":"\\n\\1\\n", 
          "repetir" : 0
},
{
         "buscar":"^\\n",
         "substituirPor":"", 
          "repetir" : 0
},

      {
         "buscar":"((Brasília|Rio de Janeiro), [0-9]{1,2} de (janeiro|fevereiro|março|abril|maio|junho|julho|agosto|setembro|outubro|novembro|dezembro) de [12][0-9]{3})",
         "substituirPor":"</corpo><assinatura><dataAssinatura>\\1</dataAssinatura>", 
          "repetir" : 1
},
    {
         "buscar":"</dataAssinatura>([\\s.A-ZÁÉÍÓÚÂÃÊĨÕŨÀÈÌÒÙ'ÂÊÎÔ]*)([\\s\\.A-ZÁÉÍÓÚÂÊĨÕŨÀÈÌÒÙ'ÂÊÎÔ])",
         "substituirPor":"</dataAssinatura><assinaturaAutoridade>\\1</assinaturaAutoridade>\\2", 
          "repetir" : 1
},
    {
         "buscar":"(Este texto não substitui o publicado no D.O.U. de.*[12][0-9]{3})",
         "substituirPor":"<aviso>\\1</aviso>", 
          "repetir" : 1
},
    {
         "buscar":"</aviso>(.*)(ANEXO|Anexo|anexo)(.*)",
         "substituirPor":"</aviso>\\1</aviso><anexo>\\2</anexo>", 
          "repetir" : 1
},
    {
         "buscar":"</assinaturaAutoridade>(.*)?",
         "substituirPor":"</assinaturaAutoridade><referenda>\\1</referenda></assinatura>", 
          "repetir" : 1
},
{
         "buscar":"<aviso>(Este texto não substitui o publicado no D.O.U. de.*[12][0-9]{3})</aviso>",
         "substituirPor":"<aviso>\\1</aviso>\\n<anexo>", 
          "repetir" : 1
},
    {
         "buscar":"</preambulo>",
         "substituirPor":"</preambulo>\\n<corpo>", 
          "repetir" : 1
},












    {
         "buscar":"</livro>",
         "substituirPor":"", 
          "repetir" : 0
},
    {
         "buscar":"<livro>([\\n.]*?)(<livro>|</corpo>)",
         "substituirPor":"<livro>\\1</livro>\\2", 
          "repetir" : 0
},
    {
         "buscar":"\\n",
         "substituirPor":"", 
          "repetir" : 0
},



    {
         "buscar":"</livro>",
         "substituirPor":"", 
          "repetir" : 0
},

    {
         "buscar":"<livro>",
         "substituirPor":"<livro>@livro@", 
          "repetir" :0
},
    {
         "buscar":"@livro@(.*?)(<livro>|</corpo>)",
         "substituirPor":"<livro>\\1</livro>\\2", 
          "repetir" :0
},
     {
         "buscar":"<titulo><titulo>",
         "substituirPor":"<titulo>", 
          "repetir" :0
},
{
         "buscar":"<revogado><livro>",
         "substituirPor":"<livro><revogado>", 
          "repetir" :0
},






 {
         "buscar":"</titulo>",
         "substituirPor":"", 
          "repetir" : 0
},

    {
         "buscar":"<titulo>",
         "substituirPor":"<titulo>@titulo@", 
          "repetir" :0
},
    {
         "buscar":"@titulo@(.*?)(<titulo>|</livro>|</corpo>)",
         "substituirPor":"<titulo>\\1</titulo>\\2", 
          "repetir" :0
},
     {
         "buscar":"<titulo><titulo>",
         "substituirPor":"<titulo>", 
          "repetir" :0
},
{
         "buscar":"<revogado><titulo>",
         "substituirPor":"<titulo><revogado>", 
          "repetir" :0
},













{
         "buscar":"</capitulo>",
         "substituirPor":"", 
          "repetir" : 0
},

    {
         "buscar":"<capitulo>",
         "substituirPor":"<capitulo>@capitulo@", 
          "repetir" :0
},
    {
         "buscar":"@capitulo@(.*?)(<capitulo>|</titulo>|</corpo>)",
         "substituirPor":"<capitulo>\\1</capitulo>\\2", 
          "repetir" :0
},
     {
         "buscar":"<capitulo><capitulo>",
         "substituirPor":"<capitulo>", 
          "repetir" :0
},
{
         "buscar":"<revogado><capitulo>",
         "substituirPor":"<capitulo><revogado>", 
          "repetir" :0
},









   {
         "buscar":"</secao>",
         "substituirPor":"", 
          "repetir" : 0
},

    {
         "buscar":"<secao>",
         "substituirPor":"<secao>@secao@", 
          "repetir" :0
},
    {
         "buscar":"@secao@(.*?)(<secao>|</capitulo>|</corpo>)",
         "substituirPor":"<secao>\\1</secao>\\2", 
          "repetir" :0
},
     {
         "buscar":"<secao><secao>",
         "substituirPor":"<secao>", 
          "repetir" :0
},
{
         "buscar":"<revogado><secao>",
         "substituirPor":"<secao><revogado>", 
          "repetir" :0
},











    {
         "buscar":"</subsecao>",
         "substituirPor":"", 
          "repetir" : 0
},

    {
         "buscar":"<subsecao>",
         "substituirPor":"<subsecao>@subsecao@", 
          "repetir" :0
},
    {
         "buscar":"@subsecao@(.*?)(<subsecao>|</secao>|</corpo>)",
         "substituirPor":"<subsecao>\\1</subsecao>\\2", 
          "repetir" :0
},
     {
         "buscar":"<subsecao><subsecao>",
         "substituirPor":"<subsecao>", 
          "repetir" :0
},
{
         "buscar":"<revogado><subsecao>",
         "substituirPor":"<subsecao><revogado>", 
          "repetir" :0
},









   {
         "buscar":"</artigo>",
         "substituirPor":"", 
          "repetir" : 0
},

    {
         "buscar":"<artigo>",
         "substituirPor":"<artigo>@artigo@", 
          "repetir" :0
},
    {
         "buscar":"@artigo@(.*?)(<revogado><artigo>|<artigo>|</subsecao>|</secao>|</capitulo>|</titulo>|</livro>|</corpo>)",
         "substituirPor":"<artigo>\\1</artigo>\\2", 
          "repetir" :0
},
  

     {
         "buscar":"<artigo><artigo>",
         "substituirPor":"<artigo>", 
          "repetir" :0
},

{
         "buscar":"<revogado><artigo>",
         "substituirPor":"<artigo><revogado>", 
          "repetir" :0
},

{
         "buscar":"<livro>(.*LIVRO ?)([IVXLC]*)",
         "substituirPor":"<livro id='livro_\\2'>\\1\\2", 
          "repetir" :0
},

{
         "buscar":"<titulo>(.*?T[Í|I]TULO ?)([IVXLC]*)",
         "substituirPor":"<titulo id='titulo_\\2'>\\1\\2", 
          "repetir" :0
},
{
         "buscar":"<secao>( *?Se[c|ç][ã|a]o ?)([IVXLC]*)",
         "substituirPor":"<secao id='secao_\\2'>\\1\\2", 
          "repetir" :0
},
{
         "buscar":"<subsecao>( *?Subse[c|ç][ã|a]o ?)([IVXLC]*)",
         "substituirPor":"<subsecao id='subsecao\\2'>\\1\\2", 
          "repetir" :0
},
{
         "buscar":"<artigo>(Art\\.? )([0-9]{1,3})",
         "substituirPor":"<artigo id='_art\\2'>\\1\\2", 
          "repetir" :0
},
{
         "buscar":"<paragrafo>(\\§? )([0-9]{1,3})",
         "substituirPor":"<paragrafo id='_par\\2'>\\1\\2", 
          "repetir" :0
},
{
         "buscar":"<inciso>([IVXLC]*)",
         "substituirPor":"<inciso id='_inc\\1'>\\1", 
          "repetir" :0
},
{
         "buscar":"alinea>([a-z]*)",
         "substituirPor":"<alinea id='_ali\\1'>\\1", 
          "repetir" :0
},

  














 {
         "buscar":"(<.*?>)",
         "substituirPor":"\\n\\1\\n", 
          "repetir" : 0
},
{
         "buscar":"^\\n",
         "substituirPor":"", 
          "repetir" : 0
}
],
   "complementoXML" : 
[
      {
         "cabecalho": "<?xml version='1.0' encoding='UTF-8'?>\n<?xml-stylesheet type='text/xsl' href='alvorada0.2.xsl' ?>\n<norma  xmlns:xsi='http://www.w3.org/2001/XMLSchema-instance'    xmlns='urn:Norma.Namespace'    id='urn.lex.br.federal.constituicao.1988-10-05.1988' xsi:schemaLocation='urn:Norma.Namespace alvorada.xsd' especie='constituicao' local='BR'  autoridade='federal' codOrgaoOrigem='1' status = 'vigente' dataInicioStatus='592012800'>\n<preambulo><brasao imgUrl='http://www.planalto.gov.br/ccivil_03/decreto/Brastra.gif'></brasao>\n<norma_title-president></norma_title-president>\n<norma_title-secretaria></norma_title-secretaria>\n<norma_title-subchefia></norma_title-subchefia>", 
         "rodape": "</anexo></norma>"
      }
],
   "atributos" : 
[
      {
         "cabecalho": "<?xml version='1.0' encoding='UTF-8'?>\n<?xml-stylesheet type='text/xsl' href='alvorada0.2.xsl' ?>\n<norma  xmlns:xsi='http://www.w3.org/2001/XMLSchema-instance'    xmlns='urn:Norma.Namespace'    id='urn.lex.br.federal.constituicao.1988-10-05.1988' xsi:schemaLocation='urn:Norma.Namespace alvorada.xsd' especie='constituicao' local='BR'  autoridade='federal' codOrgaoOrigem='1' status = 'vigente' dataInicioStatus='592012800'>\n<preambulo><brasao imgUrl='http://www.planalto.gov.br/ccivil_03/decreto/Brastra.gif'></brasao>\n<norma_title-president></norma_title-president>\n<norma_title-secretaria></norma_title-secretaria>\n<norma_title-subchefia></norma_title-subchefia>", 
         "rodape": "</anexo></norma>"
      }
]
}
